*** Life<Cell> 8x7 ***

Generation = 0, Population = 8.
--0----
------0
-------
-----0-
--0----
-0-----
-0---0-
----0--

Generation = 8, Population = 29.
-**-11.
*-.*-.*
-.00..1
-**-1-1
**-10-.
0*11..1
0*.--1-
..-011.

Generation = 16, Population = 14.
-**-...
.*.**..
..0-.*-
...***.
....-*.
...*...
1..-...
..*....

Generation = 24, Population = 11.
-..**..
...**..
..-**.-
...**..
..*.*..
....*..
-..-...
.......

*** Life<Cell> 13x12 ***

Generation = 0, Population = 2.
------------
------------
---------0--
------------
------------
------------
------------
------------
------------
--------0---
------------
------------
------------

Generation = 7, Population = 34.
----0-----0-
---0-0---0-0
--0-0-0---0-
---0-0------
----0-----0-
-----------0
----0-------
---0-0-----0
--0-0-0---0-
-0-0-0-0-0--
--0-0-0-----
---0-0------
----0-------

Generation = 14, Population = 31.
------------
--0-------0-
------------
0---0-------
-----0------
0-0---0---0-
---0---0----
0-0-0---0---
-0---0---0--
0-0-0-0-----
---0---0-0-0
--0-0-------
-----0-0-0--

Generation = 21, Population = 31.
------0-----
-0-0-----0--
0-0-0---0-0-
-0----------
0---0-0---0-
-0-0-0------
0-------0---
---------0-0
------0---0-
---0---0----
----0-------
-----0-----0
----0-0-0---

Generation = 28, Population = 33.
-0-------0--
0-0---0---0-
-0---0-0-0--
------------
-----0-0---0
--0-0-0---0-
-0-------0--
------------
---0---0-0-0
0-----0---0-
-----0-0---0
------------
---0---0-0-0

*** Life<Cell> 37x17 ***

Generation = 0, Population = 2.
-----------------
-----------------
-----0-----------
-----------------
-----------------
-----------------
-----------------
-----------------
-----------------
-----------------
-----------------
-----------------
----0------------
-----------------
-----------------
-----------------
-----------------
-----------------
-----------------
-----------------
-----------------
-----------------
-----------------
-----------------
-----------------
-----------------
-----------------
-----------------
-----------------
-----------------
-----------------
-----------------
-----------------
-----------------
-----------------
-----------------
-----------------

Generation = 1, Population = 8.
-----------------
-----0-----------
----0-0----------
-----0-----------
-----------------
-----------------
-----------------
-----------------
-----------------
-----------------
-----------------
----0------------
---0-0-----------
----0------------
-----------------
-----------------
-----------------
-----------------
-----------------
-----------------
-----------------
-----------------
-----------------
-----------------
-----------------
-----------------
-----------------
-----------------
-----------------
-----------------
-----------------
-----------------
-----------------
-----------------
-----------------
-----------------
-----------------

Generation = 2, Population = 8.
-----0-----------
-----------------
---0---0---------
-----------------
-----0-----------
-----------------
-----------------
-----------------
-----------------
-----------------
----0------------
-----------------
--0---0----------
-----------------
----0------------
-----------------
-----------------
-----------------
-----------------
-----------------
-----------------
-----------------
-----------------
-----------------
-----------------
-----------------
-----------------
-----------------
-----------------
-----------------
-----------------
-----------------
-----------------
-----------------
-----------------
-----------------
-----------------

Generation = 3, Population = 31.
----0-0----------
---0-0-0---------
--0-0-0-0--------
---0-0-0---------
----0-0----------
-----0-----------
-----------------
-----------------
-----------------
----0------------
---0-0-----------
--0-0-0----------
-0-0-0-0---------
--0-0-0----------
---0-0-----------
----0------------
-----------------
-----------------
-----------------
-----------------
-----------------
-----------------
-----------------
-----------------
-----------------
-----------------
-----------------
-----------------
-----------------
-----------------
-----------------
-----------------
-----------------
-----------------
-----------------
-----------------
-----------------

Generation = 4, Population = 8.
-----0-----------
-----------------
-0-------0-------
-----------------
-----------------
-----------------
-----0-----------
-----------------
----0------------
-----------------
-----------------
-----------------
0-------0--------
-----------------
-----------------
-----------------
----0------------
-----------------
-----------------
-----------------
-----------------
-----------------
-----------------
-----------------
-----------------
-----------------
-----------------
-----------------
-----------------
-----------------
-----------------
-----------------
-----------------
-----------------
-----------------
-----------------
-----------------

*** Life<Cell> 27x16 ***

Generation = 0, Population = 3.
----------------
----------------
----------------
----------------
----------------
----------------
----------------
----------------
----------------
----------------
----------------
----------------
----------------
----------------
----------------
-------0-0------
----0-----------
----------------
----------------
----------------
----------------
----------------
----------------
----------------
----------------
----------------
----------------

Generation = 9, Population = 28.
----------------
----------------
----------------
----------------
----------------
----------------
-------0-0------
----0-0---0-----
---0-0-0-0------
----0-----------
----------------
----------------
----------------
----------------
-0--------------
0-----------0---
---0-------0-0--
--0---------0---
----------------
----------------
----------------
----------------
-------0-0------
----0-0---0-----
---0-0-0-0------
----0-----------
----------------

Generation = 18, Population = 30.
--0-0-0---------
----------------
----0-----------
----------------
----------------
----------------
----------------
----------------
----------------
----------------
----------------
----------------
----------------
-----0---0------
----------0-0---
---0-------0----
--------0-0-0-0-
-----0---0------
----------0-0---
----------------
----0-----------
-------0-0------
--0---0---------
-----0-0-0-0----
----0-----------
-------0-0------
----------------

Generation = 27, Population = 108.
-----0---0-----0
0---0-----0---0-
-0-0-------0-0--
--0-0-------0---
---0-----0------
--0-0---0---0---
-0-0-0-0---0-0--
--0-0---0-0-0-0-
-0-0-0---0-0---0
--0-0-----0---0-
---0---------0--
----------0-0---
---0-0-0-0---0-0
----------0---0-
---0-0-0---0----
0-0---------0-0-
---0---0-0------
0---0-------0---
-0---0-0-0-0-0--
----0---------0-
---0-0-0---0-0--
----0---0-----0-
---------0-0---0
0---0-0-0---0---
-0---0---0-0-0-0
0-0---0-----0-0-
-0-0---0-0---0--

*** Life<Cell> 35x27 ***

Generation = 0, Population = 7.
---------------------------
---------------------------
---------------------------
0--------------------------
---------------------------
-------------0-------------
---------------------------
---------------------------
-------------0-------0-----
---------------------------
---------------------------
---------------------------
---------------------------
---------------------------
---------------------------
-------------------------0-
---------------------------
---------------------------
---------------------------
---0-----------------------
---------------------------
---------------------------
---------------------------
---------------------------
---------------------------
---------------------------
---------------------------
---------------------0-----
---------------------------
---------------------------
---------------------------
---------------------------
---------------------------
---------------------------
---------------------------

Generation = 4, Population = 24.
---------------------------
-------------0-------------
---------------------------
--0-0----------------------
-------------1-------0-----
---------0-------0---------
-------------.-------------
0------------.-------------
---------0---------------0-
-------------1-------------
---------------------------
-------------------------0-
-------------0-------0-----
---------------------------
---------------------------
---0-----------------0---0-
---------------------------
---------------------------
---------------------------
-------0-----------------0-
---------------------------
---------------------------
---------------------------
---0-----------------0-----
---------------------------
---------------------------
---------------------------
-----------------0-------0-
---------------------------
---------------------------
---------------------------
---------------------0-----
---------------------------
---------------------------
---------------------------

Generation = 8, Population = 33.
-------------0-------0-----
-------------1-------------
-------------.-------------
0-----0-1----.-------------
-------------*-------------
-----1-------0-------1-----
---------.-1-.-1-----------
---------.-1-.-0---------1-
-----0---------------0---1-
-------------*-----------.-
-------------.-----------.-
0--0---------.-------------
---------------------------
-------------1-------.-----
---------------------.-----
-----------------0---1-----
-------------0-------1-----
---------------------------
---------------------------
---0-------0---------0-----
---------------------------
---------------------------
---------------------------
-------------------------0-
---------------------------
---------------------------
---------------------------
---0---------0-----------0-
---------------------------
---------------------------
---------------------------
---------------------------
---------------------------
---------------------------
---------------------------

Generation = 12, Population = 108.
---------0--0.0----------0-
-----1---1--0.0--0---0-----
----------1--.--0----*-----
-----------00.-10--------0-
-----1----1-..*-00-------1-
-1----.--1-10-01---------*-
-----.---*-.1.1.---1-.---.-
---1-.1-0*0*1.-----1-.---.-
-0---------.-1---1---1---.-
-----1-----*0.01-0---10--.*
----------010*010------0-.-
--.-1--0---0-*-0-0------000
-----1------000-----0-0----
---------0---*---0-0-.-0---
-------------.----0--.--0--
0----------1-.---0---.---0-
---------0----------1.1--0-
-------------1-------------
---------------------------
---------------0-----1-----
-------------1-------1-----
---------------------------
---------------------------
-----------0-0-------------
---------------------------
---------------------------
---------------------------
-------0-0-------0---0-----
---------------------------
---------------------------
---------------------------
---0---------0-----------0-
---------------------------
---------------------------
---------------------------

Generation = 16, Population = 173.
--------0*1.**--000-1*0----
---------.-1-.*---11-.-0-.-
-----.1--*.-*.-1.-*0...-1--
---1*.-1---.**-.*0-01--0-.-
-----*--*-1-...*-1*--0001*0
-*--01.-..-.0-.*0.1.1-10-..
-----*1-0.0.-...*-1.1.00*.-
----0.-**.*.-.11-*0.-.---.-
-0-*-1-1-..*--0.1.1*1.0--.1
--0-1110*10.1*-11*--1*1-1*.
----0.-10..*-.--.1-1*-01-.*
1-.-1110---10***1---1-1-.-.
--------110--*-0----01*.1-0
--0------1-0-.-----0-*00-*0
------------0.------1.11--0
--0----------.---0---.-*0-1
-----------.----0-0-1...-*0
-------------------0-----.-
-------------.----0--.--1--
0----------1-*-----*-.-----
---------------.-----.-----
-------------.-------.-----
---------------------------
---------------------------
-------------0-------1-----
---------------------------
---------------------------
-----0-----------0---0-----
---------------------------
---------------------------
---------------------------
-------------------------0-
---------------------------
---------------------------
---------------------------

Generation = 20, Population = 257.
-----1--*******.1--1...1-1-
-0-*-.10-.-1*.*1-1.-0*0-0*0
---1-..-*.*1..-1***-.***111
0-1...-1-*-....**00-*--*1.-
---*1**-.*1....*0**1**--1.*
0..11..***-.-*..*.-....*1..
-.-1***-*.-......--***1...-
-11--*-*.*..-*1.-.-*-.--..-
10*.-.1***..1-......1**-1.*
-1-*1.--.*-...1...--.*.0*.*
0-..*.-*0*...**...-..1*.-**
11..-1-1---1-*...-0--1-..0*
-0-0--.*...-1*-.1-00-*..11-
0-0-0*-11.--1*-.0-0--.-1*.*
----1--1*.---.-*010--...00-
0---01-0----1*0.1-0--*-.--.
--------010*000*0-0-****0*0
--0------0---1------01--*.-
----------0--.--0--1-*1--*0
----0--0-0-1-.----0*1.--110
------------0--.--0*0*---10
-----------11*0----01*0----
-------------1----0--1--0--
0----0-----1-----0-1-1-----
---------0---------------0-
---------------------.-----
---------------------.-----
-0-------0---1---0---1-----
-------------0-------1-----
---------------------------
---------------------------
-----0-----------0-------0-
---------------------------
---------------------------
---------------------------

*** Life<Cell> 35x1 ***

Generation = 0, Population = 13.
0
-
-
-
-
-
0
-
-
-
0
-
0
0
0
0
-
-
-
-
-
0
-
0
0
0
-
0
-
0
-
-
-
-
-

Generation = 6, Population = 12.
-
-
0
-
0
-
-
0
*
.
1
.
-
1
-
.
1
-
0
0
-
.
-
.
-
-
1
.
-
-
0
-
-
0
-

*** Life<Cell> 4x6 ***

Generation = 0, Population = 6.
-00---
---0--
---00-
-----0

Generation = 2, Population = 5.
1**---
-1----
-----0
------

Generation = 4, Population = 13.
***100
-.-1--
0100-0
-0----

Generation = 6, Population = 11.
.***--
0.1--0
**-0-0
-*----

Generation = 8, Population = 12.
.*..1-
*..*1*
*.-0--
-*11-1

Generation = 10, Population = 11.
.*...-
***..*
*.0011
-.1---

Generation = 12, Population = 12.
**...*
*.*...
*.*01-
-.*-1*

*** Life<Cell> 27x38 ***

Generation = 0, Population = 5.
--------------------------------------
--------------------------------------
--------------------------------------
--------------------------------------
------------------0-------------------
--------------------------------------
--------------------------------------
--------------------------------------
---------------0----------------------
--------------------------------------
--------------------------------------
--------------------------------------
--------------------------------------
--------------------------------------
--------------------------------------
--------------------------------------
--------------------------------------
-----------------------------0--------
--------------------------------------
-----------0--------------------------
--------------------------------------
--------------------------------------
------------0-------------------------
--------------------------------------
--------------------------------------
--------------------------------------
--------------------------------------

Generation = 2, Population = 20.
--------------------------------------
--------------------------------------
------------------0-------------------
--------------------------------------
----------------0---0-----------------
--------------------------------------
---------------0--0-------------------
--------------------------------------
-------------0---0--------------------
--------------------------------------
---------------0----------------------
--------------------------------------
--------------------------------------
--------------------------------------
--------------------------------------
-----------------------------0--------
--------------------------------------
-----------0---------------0---0------
--------------------------------------
---------0---0---------------0--------
------------0-------------------------
-----------0--------------------------
----------0---0-----------------------
--------------------------------------
------------0-------------------------
--------------------------------------
--------------------------------------

Generation = 4, Population = 20.
------------------0-------------------
--------------------------------------
--------------------------------------
--------------------------------------
--------------01------0---------------
--------------------------------------
--------------------------------------
--------------------------------------
-----------0------10------------------
--------------------------------------
--------------------------------------
--------------------------------------
---------------0----------------------
-----------------------------0--------
--------------------------------------
-----------0--------------------------
--------------------------------------
-------------------------0-------0----
------------0-------------------------
-------0-------0----------------------
--------------------------------------
-----------------------------0--------
--------0-------0---------------------
-----------0--------------------------
--------------------------------------
--------------------------------------
------------0-------------------------

Generation = 6, Population = 80.
----------------0-0-0-----------------
--------------------------------------
--------------00--0---0---------------
--------------------------------------
------------01-.10--0---0-------------
--------------------------------------
-----------0--00--00--0---------------
--------------------------------------
---------0---0--01.-10----------------
--------------------------------------
-----------0---0--00------------------
-----------------------------0--------
-------------0---0--------------------
-----------0---------------0---0------
---------------0----------------------
---------0---0-----------0---0---0----
------------0-------------------------
-------0---0---0-------0---0---0---0--
----------0---0-----------------------
-----0---0---0---0-------0---0---0----
--------0---0---0---------------------
-------0---0---0-----------0---0------
------0---0---0---0-------------------
---------0---0---------------0--------
--------0---0---0---------------------
-----------0--------------------------
----------0-0-0-----------------------

Generation = 8, Population = 25.
---------------1----------------------
--------------------------------------
------------------0-------------------
---------------1----------------------
----------0--.*..---------0-----------
---------------1----------------------
--------------------------------------
------------------1-------------------
-------0---------..*.--0--------------
------------------1----------0--------
--------------------------------------
-----------1--------------------------
------------------1-------------------
--------------------------------------
------------0-------------------------
--------------------------------------
---------------1----------------------
---------------------0---------------0
--------------------------------------
---0---------------0------------------
--------------------------------------
--------------------------------------
----0---------------0-----------------
--------------------------------------
------------0-------------------------
-----------------------------0--------
--------------------------------------

*** Life<Cell> 31x40 ***

Generation = 0, Population = 13.
----------------------------------------
----------------------------------------
-------------------------------0--------
------------------0---------------------
-----------0----------------------------
----------------------------------------
----------------------0-----------------
----------------------------------------
----------------------------------------
----------------0-0-------------0-------
----------------------------------------
----------------------------------------
----------------------------------------
----------------------------------------
----------------------------------------
----------------------------------------
----------------------------------------
-----------------------------------0----
----------------------------------------
----------------------------------------
----------------------------------------
----------------------------------------
----------------------------------------
--------------0-------------------------
----------------------0-----------------
----------------------------------------
----------------------------------------
-----------0----------------------------
---------------0------------------------
----------------------------------------
----------------------------0-----------

Generation = 1, Population = 49.
----------------------------------------
-------------------------------0--------
------------------0-----------0-0-------
-----------0-----0-0-----------0--------
----------0-0-----0---------------------
-----------0----------0-----------------
---------------------0-0----------------
----------------------0-----------------
----------------0-0-------------0-------
---------------0---0-----------0-0------
----------------0-0-------------0-------
----------------------------------------
----------------------------------------
----------------------------------------
----------------------------------------
----------------------------------------
-----------------------------------0----
----------------------------------0-0---
-----------------------------------0----
----------------------------------------
----------------------------------------
----------------------------------------
--------------0-------------------------
-------------0-0------0-----------------
--------------0------0-0----------------
----------------------0-----------------
-----------0----------------------------
----------0-0--0------------------------
-----------0--0-0-----------------------
---------------0------------0-----------
---------------------------0-0----------

*** Life<Cell> 25x37 ***

Generation = 0, Population = 14.
-------------------------------------
-------------------------------------
-------------------------------------
------------0------------------------
-----------------------------------0-
-------------------------------------
--------0----------------------------
-------------------0-----------------
--------0------------------------0---
-------------------------------------
-------------------------------------
-------0--0--------------------------
-----0-------------------------------
------------------------------------0
-------------------------------0-----
-------------------------------------
-------------------------------------
-------------------------------------
-------------------------------------
-------------------------------------
-------------------------------------
------0------------------------------
-------------------------------------
-------------------------------------
------------------------------0---0--

Generation = 1, Population = 51.
-------------------------------------
-------------------------------------
------------0------------------------
-----------0-0---------------------0-
------------0---------------------0-0
--------0--------------------------0-
-------0-0---------0-----------------
------------------0-0------------0---
-------0-0---------0------------0-0--
--------0------------------------0---
-------0--0--------------------------
-----00-00-0-------------------------
----0-00--0-------------------------0
-----0-------------------------0---0-
------------------------------0-0---0
-------------------------------0-----
-------------------------------------
-------------------------------------
-------------------------------------
-------------------------------------
------0------------------------------
-----0-0-----------------------------
------0------------------------------
------------------------------0---0--
-----------------------------0-0-0-0-

Generation = 2, Population = 53.
-------------------------------------
------------0------------------------
-----------------------------------0-
----------0---0----------------------
--------0------------------------0---
------------0------0-----------------
------0-0-0----------------------0-0-
-----------------0---0---------------
------0-0-0--------------------0---0-
-------0--0--------0-----------------
-----0--0------------------------0---
-----1--11--0-----------------------0
---0---1-----------------------0-----
-------0--0-----------------------0-0
-----0-----------------------0---0---
------------------------------------0
-------------------------------0-----
-------------------------------------
-------------------------------------
------0------------------------------
-------------------------------------
----0---0----------------------------
------------------------------0---0--
------0------------------------------
----------------------------0-0---0-0

Generation = 3, Population = 150.
------------0------------------------
-----------0-0---------------------0-
----------0-0-0-------------------0-0
--------00-0-0-0-----------------0-0-
-------0-00-0-0----0------------0-0--
------0---00-0----0-0--------------0-
-----0-----00----0-0-0----------0---0
----------------0-0-0-0--------0-0---
-----0-0--10-----0-0-0--------0-0-0-0
-----0--0010------0-0----------0-0-0-
----010-1-0-0------0------------0-0-0
---00*0--*00-0-----------------0-0-0-
--0-000*-00-0-----------------0-0-0--
---0-00100-0-----------------0-0-----
----0-00--0-----------------0-0-0----
-----0-----------------------0-0-0-0-
------------------------------0-0---0
-------------------------------0-----
------0------------------------------
-----0-0-----------------------------
----0-0-0----------------------------
---0-0-0-0--------------------0---0--
----0-0-0--------------------0-0-0-0-
-----0-0--------------------0-------0
------0--------------------0---0-0---

Generation = 4, Population = 53.
-----------------------------------0-
-------------------------------------
--------0----------------------------
--------1-------0--0-----------------
--------0----------------------0-0-0-
-------------------------------------
----0-------1------------------------
-------0--0-0--0-------0-------------
----01------0----------------0-----0-
------------------------------------0
--------*----------------------0-----
---1-.1--.-1--0----0-----------------
-0-----.01-----------------------0---
--------------------------------0-0--
---------------------------0-------0-
-------0--0--------------------------
-----0-------------------------------
------0-----------------------------0
-------------------------------0-----
-------------------------------------
------------------------------0---0--
--0-------0--------------------------
------------------------------0---0--
-------------------------------------
--------------------------0---0---0-0

Generation = 5, Population = 160.
----------------------------------0-0
--------0--------------------------0-
-------010------0--0-----------------
-------0-0-----0-00-0----------0-0-0-
-------010------0--0----------0-----0
----0---0---0------------------0-0-0-
---0-0-0--00*0-0-------0-------------
-----00-00---00-0-----0-0----0-----0-
---01*00--1010-0-------0----0-0---0--
----00--0---0----------------0-0-----
---0--00.0-0--0----0----------0-0---0
-00-0.-0-*0-00-0--0-0----------0-0---
0-00--0.1*00--0----0-----------------
-0------00-----------------0---0-0---
-------0--0---------------0-0---0---0
-----00-00-0---------------0-------0-
----0--0--0-------------------------0
-------0-----------------------0---0-
------0-----------------------0-0---0
------------------------------00--0--
--0-------0------------------0-0-0-0-
-0-0-----0-0-------------------------
--0-------0------------------0-0-0-0-
--------------------------0---------0
-------------------------0-0-0-0-0---
