*** Life<FredkinCell> 5x5 ***

Generation = 0, Population = 8.
0-0--
000--
-----
0-0--
-0---

Generation = 1, Population = 8.
1010-
---0-
-0---
-0-0-
-----

Generation = 2, Population = 13.
2---0
0--10
010--
01--0
-0-0-

Generation = 3, Population = 9.
30--1
---2-
121--
-2---
-1---

Generation = 4, Population = 9.
411--
-----
232--
-----
020--

*** Life<FredkinCell> 5x5 ***

Generation = 0, Population = 16.
000--
00-0-
-000-
000--
0000-

Generation = 1, Population = 15.
-11--
-1-10
011-0
--10-
-1110

Generation = 2, Population = 16.
0-2-0
---2-
12--1
002-0
02221

Generation = 3, Population = 8.
---0-
-1--0
----2
1--0-
-33--

Generation = 4, Population = 10.
-12--
0-0-1
12--3
-----
-44--

Generation = 5, Population = 16.
-2-00
1-1-2
-3-04
1-2-0
0552-

*** Life<FredkinCell> 12x13 ***

Generation = 0, Population = 11.
----0---0-0--
---0---------
---0---------
-------------
-0-------0-0-
-------------
-------------
--------0----
-------------
--------0----
----------0--
-------------

Generation = 1, Population = 31.
-----0-0---0-
--01----0-0--
--010--------
-0-0-----0-0-
0-0-----0---0
-0-------0-0-
--------0----
-------0-0---
-------------
-------0-00--
--------00-0-
----------0--

Generation = 2, Population = 30.
--000-------0
-0---0-------
----10--0000-
---1---------
-------0-0-0-
--------0----
-0-------0-0-
------0-0-0--
----------0--
------0-0-1--
--------1---0
--------0----

Generation = 3, Population = 57.
--1-1------0-
0--1010-00000
-0--2-001--10
--0--0-00-0--
---0--0-0---0
-0-------0---
0-0---0-0-0-0
-0---0---01--
---------0-0-
-----0--1-200
------00-000-
-------010--0

Generation = 4, Population = 35.
00-02-0-00-1-
---2---0-----
----3--12-0--
--------1----
-0--0--01-00-
---0----0----
---0------1--
----0-------0
-0-------1-1-
----0-------1
------1---1-0
-------------

*** Life<FredkinCell> 12x13 ***

Generation = 0, Population = 11.
0---------0--
-0-----0-----
-------------
-------------
-------------
0------------
-------------
-------------
0--00--------
-------------
-------------
----00---0---

Generation = 1, Population = 32.
-------0-0-0-
--0---0-0-0--
-0-----0-----
-------------
0------------
-0-----------
0------------
0--00--------
-00110-------
0--00--------
----00---0---
---0110-0-0--

Generation = 2, Population = 35.
--0-----0-0-0
---0-0---0---
0---------0--
00-----0-----
-------------
0-0----------
1--00--------
1------------
01---10------
----10---0---
0--01--------
--01221--0-0-

Generation = 3, Population = 53.
-0---0-0-0---
0-----0---0-0
1--0-0-0---0-
-10---0-0-0--
-00----0-----
1---0--------
-0-110-------
---0000------
-20---10-0---
-0------0-0--
-0--200----0-
00123-200---0

Generation = 4, Population = 35.
--0-0-0-----0
1--0-0-0---0-
2---------0--
-------------
---00-----0--
-00-1--0-----
-------------
----11---0---
0-1-1--10----
0---10---0---
-------------
11---2--10---

Generation = 5, Population = 71.
00-0-0-------
20--0-0-0----
30-0-0-0-0---
0--00--------
-0-1-0-0-0-0-
1110200-0-0--
-00--0-0-0---
1-00-200--0--
1----11210---
1000-100--0--
-0--2---0----
221-3-20210--

*** Life<FredkinCell> 4x4 ***

Generation = 0, Population = 6.
000-
0-0-
----
--0-

Generation = 1, Population = 8.
---0
1010
0---
-0-0

Generation = 2, Population = 6.
00-1
----
100-
----

Generation = 3, Population = 10.
11--
--10
2-10
000-

*** Life<FredkinCell> 5x5 ***

Generation = 0, Population = 6.
0--0-
00-00
-----
-----
-----

Generation = 1, Population = 9.
1-01-
-1--1
00-00
-----
-----

Generation = 2, Population = 13.
-012-
02-02
1--1-
00-00
-----

Generation = 3, Population = 12.
-----
--013
-00-0
-1--1
00-00

Generation = 4, Population = 7.
--120
-----
1--1-
-----
1--1-

*** Life<FredkinCell> 6x6 ***

Generation = 0, Population = 4.
0-00--
---0--
------
------
------
------

Generation = 1, Population = 6.
--1-0-
0--10-
---0--
------
------
------

Generation = 2, Population = 11.
00-010
-0---0
0-01--
---0--
------
------

Generation = 3, Population = 13.
1--1--
01---1
-01-00
0--10-
---0--
------

*** Life<FredkinCell> 6x6 ***

Generation = 0, Population = 4.
------
--0-0-
--00--
------
------
------

Generation = 2, Population = 13.
--10--
0-2-0-
01--00
--1-0-
--00--
------

Generation = 4, Population = 7.
--12--
--4---
0----2
------
------
--1-0-

Generation = 6, Population = 12.
-1141-
2---1-
0----2
----1-
0----0
0-----

*** Life<FredkinCell> 12x12 ***

Generation = 0, Population = 4.
------------
--0---------
----0-------
----0-------
----0-------
------------
------------
------------
------------
------------
------------
------------

Generation = 1, Population = 14.
--0---------
-0-00-------
--0010------
---0-0------
---010------
----0-------
------------
------------
------------
------------
------------
------------

Generation = 2, Population = 11.
----0-------
0-----------
--1-2-0-----
------0-----
--0-2-0-----
----1-------
----0-------
------------
------------
------------
------------
------------

Generation = 3, Population = 24.
0--0-0------
-00---0-----
00----10----
-----0-0----
-0--3-10----
--00-00-----
---010------
----0-------
------------
------------
------------
------------

Generation = 4, Population = 13.
------------
0-1---1-----
1-------0---
0-------0---
0-------0---
--1---------
----2-------
----1-------
----0-------
------------
------------
------------

*** Life<FredkinCell> 6x7 ***

Generation = 0, Population = 3.
0------
-------
--00---
-------
-------
-------

Generation = 1, Population = 10.
-0-----
0-00---
-0110--
--00---
-------
-------

Generation = 2, Population = 6.
---0---
-------
-1--10-
-------
--00---
-------

Generation = 3, Population = 23.
--0-0--
-0-000-
0-11210
-00000-
-0110--
--00---
