*** Life<Cell> 4x4 ***

Generation = 0, Population = 10.
0000
-0-0
--0-
-000

Generation = 1, Population = 11.
11--
-1-1
-010
0111

Generation = 2, Population = 11.
*-00
--0*
-1*1
1**-

Generation = 3, Population = 3.
.---
0-1.
--.-
*..-

Generation = 4, Population = 1.
.-0-
---.
--.-
...-

Generation = 5, Population = 3.
.1-0
--1.
--.-
...-

*** Life<Cell> 5x5 ***

Generation = 0, Population = 20.
0--00
-0000
000-0
-0000
00000

Generation = 1, Population = 14.
-----
0-111
1-1--
01-11
1111-

Generation = 2, Population = 12.
0-000
1---*
-0*0-
1---*
-*---

Generation = 3, Population = 14.
1-1--
*--1*
11*10
-10-.
-.1-0

Generation = 4, Population = 11.
*---0
*-1-*
-*.*-
--1-*
-**--

Generation = 5, Population = 18.
.0101
*0-1*
-*..0
-1*1.
1**10

*** Life<Cell> 4x4 ***

Generation = 0, Population = 10.
0---
-0-0
0000
0-00

Generation = 1, Population = 10.
---0
0101
-111
10--

Generation = 2, Population = 12.
00-1
1*1*
0**-
*--0

Generation = 3, Population = 8.
--0*
*.**
1..1
*---

Generation = 4, Population = 7.
00-*
....
-.**
.0-0

Generation = 5, Population = 8.
11-.
.*.*
-.**
.-01

Generation = 6, Population = 7.
*-0.
**.*
-*..
.0--

Generation = 7, Population = 6.
*1-.
*...
-*..
.10-

Generation = 8, Population = 8.
**0.
*...
-**.
.-11

Generation = 9, Population = 8.
**1.
*...
-***
.--*

Generation = 10, Population = 10.
***.
*..*
-***
.1-*

*** Life<Cell> 4x4 ***

Generation = 0, Population = 15.
0000
-000
0000
0000

Generation = 2, Population = 9.
-**-
--0*
0--*
0**-

Generation = 4, Population = 9.
-**-
--0*
*0-*
-**-

Generation = 6, Population = 9.
-.*-
1-0*
*0-*
-**-

Generation = 8, Population = 8.
-.*-
.-0*
*0-*
-**-

Generation = 10, Population = 4.
-..-
.--*
.--*
-**-

*** Life<Cell> 4x4 ***

Generation = 0, Population = 15.
-000
0000
0000
0000

Generation = 2, Population = 6.
-0--
0--*
---*
-**-

Generation = 4, Population = 8.
-0-1
0-1.
-1-*
1.*-

*** Life<Cell> 5x5 ***

Generation = 0, Population = 13.
0--0-
0-00-
00-0-
0-0--
--000

Generation = 3, Population = 12.
*0-10
----*
1*-.*
.-1-*
0---*

Generation = 6, Population = 9.
.--.0
1-1-*
..1.*
.---*
-*0-.

Generation = 9, Population = 14.
.-0.1
--***
**...
**1**
-**-.

Generation = 12, Population = 6.
**-..
***..
..*..
.....
-..-.

Generation = 15, Population = 3.
..*..
.**..
.....
.....
-..-.

Generation = 18, Population = 4.
.**..
.**..
.....
.....
-..-.

*** Life<Cell> 6x6 ***

Generation = 0, Population = 20.
0--00-
000-00
00--0-
-000-0
----00
0--00-

Generation = 3, Population = 18.
.--*0-
-***.1
01--1*
10-.1.
---*--
0-*11-

Generation = 6, Population = 17.
**0..-
-....*
-.01-*
1-**.*
-1-.--
00***-

Generation = 9, Population = 18.
.**..-
*....*
0*111*
--***.
1.-*-0
1...*.

Generation = 12, Population = 15.
..*.**
.***.*
1....*
*1....
..-.*0
*.*...

Generation = 15, Population = 15.
....**
**..**
**...*
**.*.*
..-*.*
......

Generation = 18, Population = 1.
......
......
......
......
..1...
......

*** Life<Cell> 6x6 ***

Generation = 0, Population = 36.
000000
000000
000000
000000
000000
000000

Generation = 1, Population = 16.
-1111-
1----1
1----1
1----1
1----1
-1111-

Generation = 2, Population = 16.
-*--*-
*-00-*
-0--0-
-0--0-
*-00-*
-*--*-

Generation = 3, Population = 16.
-*--*-
*-11-*
-1--1-
-1--1-
*-11-*
-*--*-

Generation = 4, Population = 16.
-*--*-
*-**-*
-*--*-
-*--*-
*-**-*
-*--*-

Generation = 5, Population = 16.
-*--*-
*-**-*
-*--*-
-*--*-
*-**-*
-*--*-

Generation = 6, Population = 16.
-*--*-
*-**-*
-*--*-
-*--*-
*-**-*
-*--*-

Generation = 7, Population = 16.
-*--*-
*-**-*
-*--*-
-*--*-
*-**-*
-*--*-

Generation = 8, Population = 16.
-*--*-
*-**-*
-*--*-
-*--*-
*-**-*
-*--*-

Generation = 9, Population = 16.
-*--*-
*-**-*
-*--*-
-*--*-
*-**-*
-*--*-

Generation = 10, Population = 16.
-*--*-
*-**-*
-*--*-
-*--*-
*-**-*
-*--*-

*** Life<Cell> 2x2 ***

Generation = 0, Population = 2.
00
--

Generation = 5, Population = 0.
--
--

*** Life<Cell> 1x1 ***

Generation = 0, Population = 1.
0

Generation = 1, Population = 0.
-

*** Life<Cell> 5x5 ***

Generation = 0, Population = 15.
000--
000--
--0-0
-000-
000-0

Generation = 5, Population = 11.
-*1*-
-..-*
-***-
-00*1
..-.-

Generation = 10, Population = 8.
-.1*-
-..*.
1...-
*-...
**1.-

*** Life<Cell> 10x10 ***

Generation = 0, Population = 10.
----0-----
----0----0
--0---0---
-0--------
---------0
------0---
----------
----------
-0-0------
----------

Generation = 1, Population = 31.
---010---0
--00100-0-
---000-0-0
0-----0--0
-0----0-0-
-----0-0-0
------0---
-0-0------
0---0-----
-0-0------

Generation = 2, Population = 28.
----*-----
-01---10-0
0---1---01
---00-1--1
--0---10-0
-0--0---0-
-0-0-----0
------0---
-0-0-0----
----------

Generation = 3, Population = 41.
-000.000-0
-1*0-0*101
--0-*0--1*
0--1--*---
-----0-101
01---00--0
01----0---
-------0-0
0---------
-0-0-0----
