*** Life<ConwayCell> 12x9 ***

Generation = 0, Population = 9.
.........
.........
.....*...
.........
..*......
.........
*........
.........
.*.....*.
........*
.*...*..*
.........

Generation = 2, Population = 0.
.........
.........
.........
.........
.........
.........
.........
.........
.........
.........
.........
.........

Generation = 4, Population = 0.
.........
.........
.........
.........
.........
.........
.........
.........
.........
.........
.........
.........

Generation = 6, Population = 0.
.........
.........
.........
.........
.........
.........
.........
.........
.........
.........
.........
.........

Generation = 8, Population = 0.
.........
.........
.........
.........
.........
.........
.........
.........
.........
.........
.........
.........

Generation = 10, Population = 0.
.........
.........
.........
.........
.........
.........
.........
.........
.........
.........
.........
.........

*** Life<ConwayCell> 5x9 ***

Generation = 0, Population = 8.
*..*.....
**......*
......*.*
.........
.......*.

Generation = 2, Population = 7.
**.......
**.......
......***
.........
.........

Generation = 4, Population = 7.
**.......
**.......
......***
.........
.........

Generation = 6, Population = 7.
**.......
**.......
......***
.........
.........

Generation = 8, Population = 7.
**.......
**.......
......***
.........
.........

Generation = 10, Population = 7.
**.......
**.......
......***
.........
.........

*** Life<ConwayCell> 2x10 ***

Generation = 0, Population = 7.
.*...*..*.
...*.*.**.

Generation = 2, Population = 4.
......*.*.
......*.*.

Generation = 4, Population = 0.
..........
..........

Generation = 6, Population = 0.
..........
..........

Generation = 8, Population = 0.
..........
..........

Generation = 10, Population = 0.
..........
..........

*** Life<ConwayCell> 3x2 ***

Generation = 0, Population = 6.
**
**
**

Generation = 2, Population = 0.
..
..
..

Generation = 4, Population = 0.
..
..
..

Generation = 6, Population = 0.
..
..
..

Generation = 8, Population = 0.
..
..
..

Generation = 10, Population = 0.
..
..
..

*** Life<ConwayCell> 10x3 ***

Generation = 0, Population = 8.
*..
...
...
.**
..*
..*
...
*..
...
**.

Generation = 2, Population = 4.
...
...
...
.**
.**
...
...
...
...
...

Generation = 4, Population = 4.
...
...
...
.**
.**
...
...
...
...
...

Generation = 6, Population = 4.
...
...
...
.**
.**
...
...
...
...
...

Generation = 8, Population = 4.
...
...
...
.**
.**
...
...
...
...
...

Generation = 10, Population = 4.
...
...
...
.**
.**
...
...
...
...
...

*** Life<ConwayCell> 3x1 ***

Generation = 0, Population = 3.
*
*
*

Generation = 2, Population = 0.
.
.
.

Generation = 4, Population = 0.
.
.
.

Generation = 6, Population = 0.
.
.
.

Generation = 8, Population = 0.
.
.
.

Generation = 10, Population = 0.
.
.
.

*** Life<ConwayCell> 10x4 ***

Generation = 0, Population = 9.
..*.
....
....
...*
....
....
.*..
.*..
****
...*

Generation = 2, Population = 4.
....
....
....
....
....
....
....
....
**..
**..

Generation = 4, Population = 4.
....
....
....
....
....
....
....
....
**..
**..

Generation = 6, Population = 4.
....
....
....
....
....
....
....
....
**..
**..

Generation = 8, Population = 4.
....
....
....
....
....
....
....
....
**..
**..

Generation = 10, Population = 4.
....
....
....
....
....
....
....
....
**..
**..

*** Life<ConwayCell> 11x5 ***

Generation = 0, Population = 10.
....*
.....
.*.*.
....*
...*.
.*.*.
.....
*....
.....
*....
*....

Generation = 2, Population = 6.
.....
.....
...*.
..*.*
.*..*
..*..
.....
.....
.....
.....
.....

Generation = 4, Population = 6.
.....
.....
...*.
.**..
.***.
.....
.....
.....
.....
.....
.....

Generation = 6, Population = 3.
.....
.....
.....
.*...
.*...
..*..
.....
.....
.....
.....
.....

Generation = 8, Population = 0.
.....
.....
.....
.....
.....
.....
.....
.....
.....
.....
.....

Generation = 10, Population = 0.
.....
.....
.....
.....
.....
.....
.....
.....
.....
.....
.....

*** Life<ConwayCell> 1x7 ***

Generation = 0, Population = 5.
*****..

Generation = 2, Population = 1.
..*....

Generation = 4, Population = 0.
.......

Generation = 6, Population = 0.
.......

Generation = 8, Population = 0.
.......

Generation = 10, Population = 0.
.......

*** Life<ConwayCell> 3x9 ***

Generation = 0, Population = 7.
.......*.
..***....
*...*..*.

Generation = 2, Population = 6.
...**....
...**....
...**....

Generation = 4, Population = 6.
...**....
..*..*...
...**....

Generation = 6, Population = 6.
...**....
..*..*...
...**....

Generation = 8, Population = 6.
...**....
..*..*...
...**....

Generation = 10, Population = 6.
...**....
..*..*...
...**....
